My Data Analysis Portfolio - Machine Learning
…
! Fold1, Repeat5: internal: A correlation computation is required, but `estimate` is constant and ha...

! Fold2, Repeat5: internal: A correlation computation is required, but `estimate` is constant and ha...

! Fold3, Repeat5: internal: A correlation computation is required, but `estimate` is constant and ha...

! Fold4, Repeat5: internal: A correlation computation is required, but `estimate` is constant and ha...

! Fold5, Repeat5: internal: A correlation computation is required, but `estimate` is constant and ha...

tree_res %>% 
  collect_metrics()

# A tibble: 50 × 8
   cost_complexity tree_depth .metric .estimator     mean     n  std_err .config
             <dbl>      <int> <chr>   <chr>         <dbl> <int>    <dbl> <chr>  
 1    0.0000000001          1 rmse    standard     1.20      25  0.0173  Prepro…
 2    0.0000000001          1 rsq     standard     0.0485    25  0.00488 Prepro…
 3    0.0000000178          1 rmse    standard     1.20      25  0.0173  Prepro…
 4    0.0000000178          1 rsq     standard     0.0485    25  0.00488 Prepro…
 5    0.00000316            1 rmse    standard     1.20      25  0.0173  Prepro…
 6    0.00000316            1 rsq     standard     0.0485    25  0.00488 Prepro…
 7    0.000562              1 rmse    standard     1.20      25  0.0173  Prepro…
 8    0.000562              1 rsq     standard     0.0485    25  0.00488 Prepro…
 9    0.1                   1 rmse    standard     1.22      25  0.0178  Prepro…
10    0.1                   1 rsq     standard   NaN          0 NA       Prepro…
# … with 40 more rows
…
#Using tuning grids
lr_res <- 
  lasso_workflow %>% 
  tune_grid(resamples = fold_ds,
            grid = lasso_grid,
            control = control_grid(verbose = FALSE, save_pred = TRUE),
            metrics = NULL)

lr_res %>% collect_metrics()

# A tibble: 60 × 7
    penalty .metric .estimator   mean     n std_err .config              
      <dbl> <chr>   <chr>       <dbl> <int>   <dbl> <chr>                
 1 0.0001   rmse    standard   1.21      25 0.0193  Preprocessor1_Model01
 2 0.0001   rsq     standard   0.0567    25 0.00650 Preprocessor1_Model01
 3 0.000127 rmse    standard   1.21      25 0.0193  Preprocessor1_Model02
 4 0.000127 rsq     standard   0.0567    25 0.00650 Preprocessor1_Model02
 5 0.000161 rmse    standard   1.21      25 0.0193  Preprocessor1_Model03
 6 0.000161 rsq     standard   0.0567    25 0.00650 Preprocessor1_Model03
 7 0.000204 rmse    standard   1.21      25 0.0193  Preprocessor1_Model04
 8 0.000204 rsq     standard   0.0567    25 0.00650 Preprocessor1_Model04
 9 0.000259 rmse    standard   1.21      25 0.0193  Preprocessor1_Model05
10 0.000259 rsq     standard   0.0567    25 0.00650 Preprocessor1_Model05
# … with 50 more rows
…
