My Data Analysis Portfolio - R Data Wrangling Exercise - Kelly Hatfield
…
mugsi <- read_csv("Data_Exercise/Data/MUGSI.csv")

Rows: 328 Columns: 6
── Column specification ────────────────────────────────────────────────────────
Delimiter: ","
chr (4): Organism, Topic, Viewby, Series
dbl (2): YearName, Value

ℹ Use `spec()` to retrieve the full column specification for this data.
ℹ Specify the column types or set `show_col_types = FALSE` to quiet this message.

#view some data
print(mugsi)

# A tibble: 328 × 6
   YearName Organism Topic      Viewby Series      Value
      <dbl> <chr>    <chr>      <chr>  <chr>       <dbl>
 1     2012 CRAB     Case Rates Age    19-49 years  1.06
 2     2013 CRAB     Case Rates Age    19-49 years  0.89
 3     2014 CRAB     Case Rates Age    19-49 years  0.53
 4     2015 CRAB     Case Rates Age    19-49 years  0.9 
 5     2016 CRAB     Case Rates Age    19-49 years  0.59
 6     2017 CRAB     Case Rates Age    19-49 years  0.38
 7     2018 CRAB     Case Rates Age    19-49 years  0.28
 8     2012 CRAB     Case Rates Age    50-64 years  1.87
 9     2013 CRAB     Case Rates Age    50-64 years  2.42
10     2014 CRAB     Case Rates Age    50-64 years  2.13
# … with 318 more rows
…
We will make columns year, organism, case rates, and death rates. There will be a row for each year, organism, and location combination.

mugsi_analysis0 = mugsi%>% filter(Topic=="Case Rates") %>% filter(Viewby=="Patient location") %>%rename(patient_location = Series) %>%  rename(case_rates = Value)

mugsi_analysis0a <- mugsi_analysis0[,!names(mugsi_analysis0) %in% c("Topic", "Viewby")]

mugsi_analysis1 = mugsi%>% filter(Topic=="Death Rates") %>%rename(patient_location = Series) %>%  rename(death_rates = Value)

mugsi_analysis1a <- mugsi_analysis1[,!names(mugsi_analysis1) %in% c("Topic", "Viewby")]
  
mugsi_tidy <- left_join(mugsi_analysis0a, mugsi_analysis1a, by=c("YearName", "Organism", "patient_location"))

print(mugsi_tidy)

# A tibble: 63 × 5
   YearName Organism patient_location case_rates death_rates
      <dbl> <chr>    <chr>                 <dbl>       <dbl>
 1     2012 CRAB     All cases              1.58        0.32
 2     2013 CRAB     All cases              1.39        0.22
 3     2014 CRAB     All cases              1.04        0.2 
 4     2015 CRAB     All cases              1.1         0.16
 5     2016 CRAB     All cases              0.76        0.07
 6     2017 CRAB     All cases              0.8         0.18
 7     2018 CRAB     All cases              0.53        0.08
 8     2012 CRAB     Community              0.32       NA   
 9     2013 CRAB     Community              0.32       NA   
10     2014 CRAB     Community              0.27       NA   
# … with 53 more rows
…
