My Data Analysis Portfolio - Tidy Tuesday Exercise 2
…
source
character
Original USDA report from which data are sourced. Values correspond to titles of PDF reports. Date of report is included in title.

#Some cleaning

#Separating out hatching and table eggs

hatching_eggsnhens <- subset(eggproduction, prod_type=='hatching eggs',c(observed_month, prod_process, n_eggs, n_hens)) 
hatching_eggsnhens$eggsperhen <- hatching_eggsnhens$n_eggs / hatching_eggsnhens$n_hens

hatching_eggsnhens

# A tibble: 55 × 5
   observed_month prod_process     n_eggs   n_hens eggsperhen
   <date>         <chr>             <dbl>    <dbl>      <dbl>
 1 2016-07-31     all          1147000000 57975000       19.8
 2 2016-08-31     all          1142700000 57595000       19.8
 3 2016-09-30     all          1093300000 57161000       19.1
 4 2016-10-31     all          1126700000 56857000       19.8
 5 2016-11-30     all          1096600000 57116000       19.2
 6 2016-12-31     all          1132900000 57750000       19.6
 7 2017-01-31     all          1123400000 57991000       19.4
 8 2017-02-28     all          1014500000 58286000       17.4
 9 2017-03-31     all          1128500000 58735000       19.2
10 2017-04-30     all          1097200000 59072000       18.6
# … with 45 more rows
…
